<!DOCTYPE svg PUBLIC "-//W3C//DTD SVG 1.1//EN" "http://www.w3.org/Graphics/SVG/1.1/DTD/svg11.dtd">
<!-- Uploaded to: SVG Repo, www.svgrepo.com, Transformed by: SVG Repo Mixer Tools -->
<svg width="64px" height="64px" viewBox="0 0 48 48" id="b" xmlns="http://www.w3.org/2000/svg" fill="#000000">
<g id="SVGRepo_bgCarrier" stroke-width="0"/>
<g id="SVGRepo_tracerCarrier" stroke-linecap="round" stroke-linejoin="round"/>
<g id="SVGRepo_iconCarrier">
<defs>
<style>.c{fill:none;stroke:#000000;stroke-linecap:round;stroke-linejoin:round;}</style>
</defs>
<path class="c" d="m31.6814,34.8868c-1.9155,1.29-4.3586,2.0718-7.2514,2.0718-5.59,0-10.3395-3.7723-12.04-8.8541v-.0195c-.43-1.29-.6841-2.6582-.6841-4.085s.2541-2.795.6841-4.085c1.7005-5.0818,6.45-8.8541,12.04-8.8541,3.1664,0,5.9809,1.0945,8.2286,3.2055l6.1568-6.1568c-3.7332-3.4791-8.5805-5.6095-14.3855-5.6095-8.4045,0-15.6559,4.8277-19.1936,11.8641-1.4659,2.8927-2.3064,6.1568-2.3064,9.6359s.8405,6.7432,2.3064,9.6359v.0195c3.5377,7.0168,10.7891,11.8445,19.1936,11.8445,5.805,0,10.6718-1.9155,14.2291-5.1991,4.0655-3.7527,6.4109-9.2645,6.4109-15.8123,0-1.5245-.1368-2.9905-.3909-4.3977h-20.2491v8.3264h11.5709c-.5082,2.6777-2.0327,4.945-4.3195,6.4695h0Z"/>
</g>
</svg>